Research Methods in Public Health - Confounding & Association
…
Code

(RD = risk2 - risk1)

[1] 0.1

Code

df <- tibble(
  mag = c(rep("Mag", 5000), rep("NoMag", 5000)),
  birth = c(rep("Preterm", 160), rep("Term", 4840 ), rep("Preterm", 630), rep("Term", 4370))
) %>% 
print()

# A tibble: 10,000 × 2
   mag   birth  
   <chr> <chr>  
 1 Mag   Preterm
 2 Mag   Preterm
 3 Mag   Preterm
 4 Mag   Preterm
 5 Mag   Preterm
 6 Mag   Preterm
 7 Mag   Preterm
 8 Mag   Preterm
 9 Mag   Preterm
10 Mag   Preterm
# ℹ 9,990 more rows
…
