Research Methods in Public Health - Matching and inverse probability weighting
…
Now we can do some actual boostrapping. We’ll use the bootstraps() function from the rsample library to divide our dataset into 500 random datasets

Code

library(rsample)

# apparent = TRUE includes the actual dataset as the final 501st row. It's
# necessary for the fancy automatic confidence interval calculations that we'll
# do later
set.seed(1234)
cookie_samples <- bootstraps(cookie_data, times = 500, apparent = TRUE)
cookie_samples
## # Bootstrap sampling with apparent sample 
## # A tibble: 501 × 2
##    splits         id          
##    <list>         <chr>       
##  1 <split [10/3]> Bootstrap001
##  2 <split [10/5]> Bootstrap002
##  3 <split [10/2]> Bootstrap003
##  4 <split [10/2]> Bootstrap004
##  5 <split [10/4]> Bootstrap005
##  6 <split [10/5]> Bootstrap006
##  7 <split [10/2]> Bootstrap007
##  8 <split [10/2]> Bootstrap008
##  9 <split [10/3]> Bootstrap009
## 10 <split [10/3]> Bootstrap010
## # ℹ 491 more rows
…
Code

cookie_samples$splits[[5]]$in_id
##  [1]  8  3  6  1  1  9  8 10  1  8

Now that everything is split up and we have 500 datasets, we’ll apply our find_stats() function to each of the datasets using the map() function from the purrr package:

Code

cookie_bootstrap_stats <- cookie_samples %>% 
  mutate(stats = map(splits, find_stats))
cookie_bootstrap_stats
## # Bootstrap sampling with apparent sample 
## # A tibble: 501 × 3
##    splits         id           stats           
##    <list>         <chr>        <list>          
##  1 <split [10/3]> Bootstrap001 <tibble [1 × 7]>
##  2 <split [10/5]> Bootstrap002 <tibble [1 × 7]>
##  3 <split [10/2]> Bootstrap003 <tibble [1 × 7]>
##  4 <split [10/2]> Bootstrap004 <tibble [1 × 7]>
##  5 <split [10/4]> Bootstrap005 <tibble [1 × 7]>
##  6 <split [10/5]> Bootstrap006 <tibble [1 × 7]>
##  7 <split [10/2]> Bootstrap007 <tibble [1 × 7]>
##  8 <split [10/2]> Bootstrap008 <tibble [1 × 7]>
##  9 <split [10/3]> Bootstrap009 <tibble [1 × 7]>
## 10 <split [10/3]> Bootstrap010 <tibble [1 × 7]>
## # ℹ 491 more rows
…
That looks like a regular table of regression results, with columns for the coefficient name, the estimate, standard error, p-value, and other things.

But all those numbers are nested inside datasets inside cells, which makes it really hard to work with. We can use the unnest() function to extract everything into regular columns:

Code

cookie_bootstrap_stats_unnested <- cookie_samples %>% 
  mutate(stats = map(splits, find_stats)) %>% 
  unnest(stats)
cookie_bootstrap_stats_unnested
## # A tibble: 501 × 9
##    splits         id           term        estimate std.error statistic   p.value conf.low conf.high
##    <list>         <chr>        <chr>          <dbl>     <dbl>     <dbl>     <dbl>    <dbl>     <dbl>
##  1 <split [10/3]> Bootstrap001 (Intercept)      2.3     0.423      5.44 0.000412      1.34      3.26
##  2 <split [10/5]> Bootstrap002 (Intercept)      2.6     0.4        6.5  0.000111      1.70      3.50
##  3 <split [10/2]> Bootstrap003 (Intercept)      2.8     0.327      8.57 0.0000127     2.06      3.54
##  4 <split [10/2]> Bootstrap004 (Intercept)      2.4     0.427      5.62 0.000325      1.43      3.37
##  5 <split [10/4]> Bootstrap005 (Intercept)      2.9     0.348      8.33 0.0000160     2.11      3.69
##  6 <split [10/5]> Bootstrap006 (Intercept)      1.9     0.314      6.04 0.000192      1.19      2.61
##  7 <split [10/2]> Bootstrap007 (Intercept)      2.9     0.379      7.66 0.0000313     2.04      3.76
##  8 <split [10/2]> Bootstrap008 (Intercept)      2.6     0.306      8.51 0.0000135     1.91      3.29
##  9 <split [10/3]> Bootstrap009 (Intercept)      2.3     0.396      5.81 0.000256      1.40      3.20
## 10 <split [10/3]> Bootstrap010 (Intercept)      2.5     0.401      6.23 0.000154      1.59      3.41
## # ℹ 491 more rows
…
With that function, we can take our nets data and make 1000 random copies of it. We’ll then apply our neat fit_one_ipw() function to each of the datasets

Code

ipw_bootstrap_stats <- bootstraps(nets, 1000, apparent = TRUE) %>% 
  mutate(results = map(splits, fit_one_ipw))

If we look at the results, we’ll see the version with all of the regression output nested inside little datasets inside cells:

Code

ipw_bootstrap_stats
## # Bootstrap sampling with apparent sample 
## # A tibble: 1,001 × 3
##    splits             id            results         
##    <list>             <chr>         <list>          
##  1 <split [1752/633]> Bootstrap0001 <tibble [2 × 5]>
##  2 <split [1752/616]> Bootstrap0002 <tibble [2 × 5]>
##  3 <split [1752/637]> Bootstrap0003 <tibble [2 × 5]>
##  4 <split [1752/640]> Bootstrap0004 <tibble [2 × 5]>
##  5 <split [1752/620]> Bootstrap0005 <tibble [2 × 5]>
##  6 <split [1752/642]> Bootstrap0006 <tibble [2 × 5]>
##  7 <split [1752/654]> Bootstrap0007 <tibble [2 × 5]>
##  8 <split [1752/648]> Bootstrap0008 <tibble [2 × 5]>
##  9 <split [1752/620]> Bootstrap0009 <tibble [2 × 5]>
## 10 <split [1752/630]> Bootstrap0010 <tibble [2 × 5]>
## # ℹ 991 more rows

If we unnest that column, we can see the actual results. Notice how there are 2,002 rows here instead of 1,001—each dataset has two values in it: the intercept and the coefficient for netTRUE.

Code

ipw_bootstrap_stats %>% 
  unnest(results)
## # A tibble: 2,002 × 7
##    splits             id            term        estimate std.error statistic  p.value
##    <list>             <chr>         <chr>          <dbl>     <dbl>     <dbl>    <dbl>
##  1 <split [1752/633]> Bootstrap0001 (Intercept)    39.5      0.468      84.3 0       
##  2 <split [1752/633]> Bootstrap0001 netTRUE        -9.73     0.658     -14.8 8.67e-47
##  3 <split [1752/616]> Bootstrap0002 (Intercept)    39.8      0.484      82.1 0       
##  4 <split [1752/616]> Bootstrap0002 netTRUE        -9.49     0.679     -14.0 3.86e-42
##  5 <split [1752/637]> Bootstrap0003 (Intercept)    40.1      0.460      87.3 0       
##  6 <split [1752/637]> Bootstrap0003 netTRUE       -10.6      0.646     -16.3 5.87e-56
##  7 <split [1752/640]> Bootstrap0004 (Intercept)    40.0      0.467      85.7 0       
##  8 <split [1752/640]> Bootstrap0004 netTRUE       -10.4      0.656     -15.9 4.72e-53
##  9 <split [1752/620]> Bootstrap0005 (Intercept)    40.0      0.464      86.2 0       
## 10 <split [1752/620]> Bootstrap0005 netTRUE       -10.4      0.652     -15.9 2.32e-53
## # ℹ 1,992 more rows

Since we’re interested in the effect of net usage, we’ll filter the data so we only look at that coefficient:

Code

ipw_bootstrap_net <- ipw_bootstrap_stats %>% 
  unnest(results) %>% 
  filter(term == "netTRUE")

ipw_bootstrap_net
## # A tibble: 1,001 × 7
##    splits             id            term    estimate std.error statistic  p.value
##    <list>             <chr>         <chr>      <dbl>     <dbl>     <dbl>    <dbl>
##  1 <split [1752/633]> Bootstrap0001 netTRUE    -9.73     0.658     -14.8 8.67e-47
##  2 <split [1752/616]> Bootstrap0002 netTRUE    -9.49     0.679     -14.0 3.86e-42
##  3 <split [1752/637]> Bootstrap0003 netTRUE   -10.6      0.646     -16.3 5.87e-56
##  4 <split [1752/640]> Bootstrap0004 netTRUE   -10.4      0.656     -15.9 4.72e-53
##  5 <split [1752/620]> Bootstrap0005 netTRUE   -10.4      0.652     -15.9 2.32e-53
##  6 <split [1752/642]> Bootstrap0006 netTRUE   -10.3      0.673     -15.3 5.81e-50
##  7 <split [1752/654]> Bootstrap0007 netTRUE   -10.6      0.638     -16.7 5.71e-58
##  8 <split [1752/648]> Bootstrap0008 netTRUE    -9.73     0.673     -14.5 8.49e-45
##  9 <split [1752/620]> Bootstrap0009 netTRUE   -10.2      0.662     -15.4 2.06e-50
## 10 <split [1752/630]> Bootstrap0010 netTRUE    -9.72     0.663     -14.7 4.63e-46
## # ℹ 991 more rows
…
