Research Methods in Public Health - Moderation Analysis
…
BCDEL
Delinquent behavior

SEXAB
Experienced sexual abuse

Code

setwd("C:/Users/barboza-salerno.1/Downloads/")
moderation_example = tibble::as_tibble(read.spss("moderation.sav", use.value.labels = F, to.data.frame = T))
moderation_example

# A tibble: 2,064 × 5
   NSCAWID  tra1 cidi1 bcdel1 sexab
     <dbl> <dbl> <dbl>  <dbl> <dbl>
 1  200003    39    50     56     0
 2  200006    36    49     73    NA
 3  200007    71    74     50     1
 4  200008    47    46     61     0
 5  200011    55    39     50     0
 6  200016    33    46     50     0
 7  200018    61    63     70     0
 8  200021    64    54     51    NA
 9  200025    51    53     57     0
10  200028    58    60     61     1
# ℹ 2,054 more rows
…
